{
  "definitions": {},
  "$schema": "http://json-schema.org/draft-04/schema#",
  "type": "object",
  "title": "The Root Schema",
  "required": [
    "id"
  ],
  "properties": {
    "id": {
      "type": "string",
      "description": "UUID of the User"
    }
  }
}
